         run       event       nTopo   nIdTracks       nJets      nMuons
      330470  1183722158           1           0           0           0
      330470  1183722342         394         411          20           0
      330470  1183727953         532         572          11           4
      330470  1183732647         467         451          13           1
      330470  1183733040         381         284           6           1
      330470  1183734651         361         360          14           3
      330470  1183735332         406         372           9           1
      330470  1183736475         741         651          15           3
      330470  1183738728           1           0           0           0
      330470  1183738949         368         424           9           1
      330470  1183742489         152         124           2           1
      330470  1183743040         285         306           5           0
      330470  1183746343         492         465          14           0
      330470  1183746710           6           0           0           0
      330470  1183751782         239         234           4           0
      330470  1183752624         347         343           8           3
      330470  1183753006         357         377          11           3
      330470  1183754806         470         405          15           0
      330470  1183769295         342         317           8           2
      330470  1183769939         348         342          11           3
      330470  1183773832         307         199           7           0
      330470  1183775209          57           0           0           0
      330470  1183787124         431         360          11           2
      330470  1183787946         321         311           5           1
      330470  1183795329         458         332          18           0
